[
    {
        "externalHostname": "localhost",
        "internalHostname": "localhost"
    },
    {
        "externalHostname": "server.mc",
        "internalHostname": "localhost"
    },
    {
        "externalHostname": "test",
        "internalHostname": "server.default.svc.cluster.local"
    }
]